…
<img src="man/figures/README-exampleChart-1.png" width="100%" />

What the data looks like:

``` r
print(read_aofm("tb", "issuance"))
```

    #> # A tibble: 23,322 × 7
    #>    date_held  tender_number maturity   isin         date_settled name      value
    #>    <date>     <chr>         <date>     <chr>        <date>       <chr>     <dbl>
    #>  1 1982-09-17 TB2           1992-03-16 AU0000XCLQA2 1982-09-22   coupon   1.5 e1
    #>  2 1982-09-17 TB2           1992-03-16 AU0000XCLQA2 1982-09-22   amount_… 1.5 e8
    #>  3 1982-09-17 TB2           1992-03-16 AU0000XCLQA2 1982-09-22   amount_… 1.5 e8
    #>  4 1982-09-17 TB2           1992-03-16 AU0000XCLQA2 1982-09-22   amount_… 5.22e8
    #>  5 1982-09-17 TB2           1992-03-16 AU0000XCLQA2 1982-09-22   coverag… 3.52e0
    #>  6 1982-09-17 TB2           1992-03-16 AU0000XCLQA2 1982-09-22   weighte… 1.53e1
    #>  7 1982-09-17 TB2           1992-03-16 AU0000XCLQA2 1982-09-22   lowest_… 1.52e1
    #>  8 1982-09-17 TB2           1992-03-16 AU0000XCLQA2 1982-09-22   highest… 1.53e1
    #>  9 1982-09-17 TB2           1992-03-16 AU0000XCLQA2 1982-09-22   highest… 1.63e1
    #> 10 1982-09-17 TB2           1992-03-16 AU0000XCLQA2 1982-09-22   weighte… 1.55e1
    #> # ℹ 23,312 more rows
…
